…
### Reading the "realized" solution (i.e. the interval)

Using `read_realized_variable` (or read realized expression, parameter or dual), will return the DataFrame of the realized solution of any specific variable. That is, it will concatenate the corresponding simulation step with the specified interval of that step, to construct a single DataFrame with the "realized solution" of the entire simulation.

For example, the code:

```julia
th_realized_power =
    read_realized_variable(results_uc, "ActivePowerVariable__ThermalStandard")
```

will return:

```raw
92×54 DataFrame
 Row │ DateTime             322_CT_6      321_CC_1  202_STEAM_3   223_CT_4  123_STEAM_2    213_CT_1  223_CT_6  313_CC_1  101_STEAM_3  123_C ⋯
     │ DateTime             Float64       Float64   Float64       Float64   Float64        Float64   Float64   Float64   Float64      Float ⋯
─────┼───────────────────────────────────────────────────────────────────────────────────────────────────────────────────────────────────────
   1 │ 2020-10-02T00:00:00   0.0           293.333   0.0               0.0    0.0               0.0       0.0   231.667      76.0     0.0   ⋯
   2 │ 2020-10-02T01:00:00   0.0           267.552   0.0               0.0    0.0               0.0       0.0   231.667      76.0     0.0
   3 │ 2020-10-02T02:00:00   0.0           234.255   0.0               0.0   -4.97544e-11       0.0       0.0   231.667      76.0     0.0
   4 │ 2020-10-02T03:00:00   0.0           249.099   0.0               0.0   -4.97544e-11       0.0       0.0   231.667      76.0     0.0
   5 │ 2020-10-02T04:00:00   0.0           293.333   0.0               0.0   -4.97544e-11       0.0       0.0   231.667      76.0     0.0   ⋯
   6 │ 2020-10-02T05:00:00   0.0           293.333   1.27578e-11       0.0   -4.97544e-11       0.0       0.0   293.333      76.0     0.0
  ⋮  │          ⋮                ⋮           ⋮           ⋮           ⋮            ⋮           ⋮         ⋮         ⋮           ⋮             ⋱
 187 │ 2020-10-09T18:00:00   0.0           293.333  76.0               0.0  155.0               0.0       0.0   318.843      76.0     0.0
 188 │ 2020-10-09T19:00:00   0.0           293.333  76.0               0.0  124.0               0.0       0.0   293.333      76.0     0.0
 189 │ 2020-10-09T20:00:00   0.0           293.333  60.6667            0.0  124.0               0.0       0.0     0.0        76.0     0.0   ⋯
 190 │ 2020-10-09T21:00:00  -7.65965e-12   293.333  60.6667            0.0  124.0               0.0       0.0     0.0        76.0     0.0
 191 │ 2020-10-09T22:00:00   0.0             0.0    60.6667            0.0  124.0               0.0       0.0     0.0        76.0     7.156
 192 │ 2020-10-09T23:00:00   0.0             0.0    60.6667            0.0  117.81              0.0       0.0     0.0        76.0     0.0
                                                                                                              44 columns and 180 rows omitted
```
…
